201110222,Fabrizio,-,-,Tripulante,07/11/1995,Item 4,Servicio al cliente,En servicio
12345,Pedro,-,abcd,admin,-,-,-,-
207510300,Karina,24,ulate1103,pasajero,-,-,-,-
207460510,Fabrizio,24,12345,pasajero,-,-,-,-
55666,Pedro,-,123,admin,-,-,-,-
789465,Jose,-,-,Tripulante,02/07/2020,Avianca,Piloto,Disponible
161654,Raquel,-,-,Tripulante,03/07/2020,Avianca,Piloto,Disponible
6765474,adfwqer,-,-,Tripulante,03/07/2020,Avianca,Servicio al cliente,Disponible
087578,qerqwrwe,-,-,Tripulante,03/07/2020,Avianca,Servicio al cliente,Disponible
4325234,jhgfsx,-,-,Tripulante,02/07/2020,Avianca,Servicio al cliente,Disponible
123,Pablo,20,0000,pasajero,-,-,-,-
789456,Pedro,-,-,Tripulante,14/06/1990,Iberia,Piloto,Disponible
567567,Jose,-,-,Tripulante,04/07/2020,Iberia,Piloto,Disponible
789987,Maria,-,-,Tripulante,01/07/2020,Iberia,Piloto,Disponible
8901273,Fabio,-,-,Tripulante,04/07/2020,Iberia,Servicio al cliente,Disponible
989989,Walter,-,-,Tripulante,04/07/2020,Iberia,Servicio al cliente,Disponible
64646,Karla,-,-,Tripulante,08/07/2020,Iberia,Servicio al cliente,Disponible